[
    {
        "name": "id",
        "dbType": "increments",
        "htmlType": null,
        "validations": null,
        "searchable": false,
        "fillable": false,
        "primary": true,
        "inForm": false,
        "inIndex": false
    },
    {
        "name": "staff",
        "dbType": "integer",
        "htmlType": "select,relation:user=name=id",
        "validations": "required",
        "searchable": true,
        "fillable": true,
        "primary": false,
        "inForm": true,
        "inIndex": true,
        "relation": "mt1,User,staff,id"
    },
    {
        "name": "store",
        "dbType": "string",
        "htmlType": "select,relation:store=name=id",
        "validations": null,
        "searchable": true,
        "fillable": true,
        "primary": false,
        "inForm": true,
        "inIndex": true,
        "dbNullable" : true,
        "relation": "mt1,Store,store,id"
    },
    {
        "name": "note",
        "dbType": "text",
        "htmlType": "textarea",
        "validations": null,
        "searchable": false,
        "fillable": true,
        "primary": false,
        "inForm": true,
        "inIndex": false,
        "dbNullable" : true
    },
    {
        "name": "image",
        "dbType": "text",
        "htmlType": "file",
        "validations": null,
        "searchable": false,
        "fillable": true,
        "primary": false,
        "inForm": true,
        "inIndex": true,
        "dbNullable" : true
    },
    {
        "name": "created_by",
        "dbType": "integer",
        "htmlType": null,
        "validations": null,
        "searchable": true,
        "fillable": true,
        "primary": false,
        "inForm": false,
        "inIndex": true,
        "dbNullable" : true
    },
    {
        "name": "updated_by",
        "dbType": "integer",
        "htmlType": null,
        "validations": null,
        "searchable": true,
        "fillable": true,
        "primary": false,
        "inForm": false,
        "inIndex": true,
        "dbNullable" : true
    },
    {
        "name": "created_at",
        "dbType": "timestamp",
        "htmlType": null,
        "validations": null,
        "searchable": true,
        "fillable": false,
        "primary": false,
        "inForm": false,
        "inIndex": true,
        "dbNullable" : true
    },
    {
        "name": "updated_at",
        "dbType": "timestamp",
        "htmlType": null,
        "validations": null,
        "searchable": true,
        "fillable": false,
        "primary": false,
        "inForm": false,
        "inIndex": true,
        "dbNullable" : true
    }
]