[
    {
        "name": "id",
        "dbType": "increments",
        "htmlType": null,
        "validations": null,
        "searchable": false,
        "fillable": false,
        "primary": true,
        "inForm": false,
        "inIndex": false
    },
    {
        "name": "purchase_id",
        "dbType": "integer",
        "htmlType": "number",
        "validations": "required",
        "searchable": true,
        "fillable": true,
        "primary": false,
        "inForm": true,
        "inIndex": true
    },
    {
        "name": "item",
        "dbType": "string",
        "htmlType": "select,relation:item=name=id",
        "validations": "required",
        "searchable": true,
        "fillable": true,
        "primary": false,
        "inForm": true,
        "inIndex": true,
        "relation": "mt1,Item,item,id"
    },
    {
        "name": "barcode",
        "dbType": "string",
        "htmlType": "text",
        "validations": "required",
        "searchable": true,
        "fillable": true,
        "primary": false,
        "inForm": true,
        "inIndex": true
    },
    {
        "name": "store",
        "dbType": "string",
        "htmlType": "select,relation:store=name=id",
        "validations": null,
        "searchable": true,
        "fillable": true,
        "primary": false,
        "inForm": true,
        "inIndex": true,
        "dbNullable" : true,
        "relation": "mt1,Store,store,id"
    },
    {
        "name": "status",
        "dbType": "string",
        "htmlType": "select,Ready:ready,Sold:sold,Transfered:transfered,Rejected:rejected",
        "validations": "required",
        "searchable": true,
        "fillable": true,
        "primary": false,
        "inForm": true,
        "inIndex": true
    },
    {
        "name": "purchase_return_id",
        "dbType": "integer",
        "htmlType": null,
        "validations": null,
        "searchable": true,
        "fillable": true,
        "primary": false,
        "inForm": false,
        "inIndex": true,
        "dbNullable" : true
    },
    {
        "name": "store_front_id",
        "dbType": "integer",
        "htmlType": null,
        "validations": null,
        "searchable": true,
        "fillable": true,
        "primary": false,
        "inForm": false,
        "inIndex": true,
        "dbNullable" : true
    },
    {
        "name": "sell_id",
        "dbType": "integer",
        "htmlType": null,
        "validations": null,
        "searchable": true,
        "fillable": true,
        "primary": false,
        "inForm": false,
        "inIndex": true,
        "dbNullable" : true
    },
    {
        "name": "sell_return_id",
        "dbType": "integer",
        "htmlType": null,
        "validations": null,
        "searchable": true,
        "fillable": true,
        "primary": false,
        "inForm": false,
        "inIndex": true,
        "dbNullable" : true
    },
    {
        "name": "stock_transfer_id",
        "dbType": "integer",
        "htmlType": null,
        "validations": null,
        "searchable": true,
        "fillable": true,
        "primary": false,
        "inForm": false,
        "inIndex": true,
        "dbNullable" : true
    },
    {
        "name": "rejected_item_id",
        "dbType": "integer",
        "htmlType": null,
        "validations": null,
        "searchable": true,
        "fillable": true,
        "primary": false,
        "inForm": false,
        "inIndex": true,
        "dbNullable" : true
    },
    {
        "name": "created_by",
        "dbType": "integer",
        "htmlType": null,
        "validations": null,
        "searchable": true,
        "fillable": true,
        "primary": false,
        "inForm": false,
        "inIndex": true,
        "dbNullable" : true
    },
    {
        "name": "updated_by",
        "dbType": "integer",
        "htmlType": null,
        "validations": null,
        "searchable": true,
        "fillable": true,
        "primary": false,
        "inForm": false,
        "inIndex": true,
        "dbNullable" : true
    },
    {
        "name": "created_at",
        "dbType": "timestamp",
        "htmlType": null,
        "validations": null,
        "searchable": true,
        "fillable": false,
        "primary": false,
        "inForm": false,
        "inIndex": true,
        "dbNullable" : true
    },
    {
        "name": "updated_at",
        "dbType": "timestamp",
        "htmlType": null,
        "validations": null,
        "searchable": true,
        "fillable": false,
        "primary": false,
        "inForm": false,
        "inIndex": true,
        "dbNullable" : true
    }
]