[
    {
        "name": "id",
        "dbType": "increments",
        "htmlType": null,
        "validations": null,
        "searchable": false,
        "fillable": false,
        "primary": true,
        "inForm": false,
        "inIndex": false
    },
    {
        "name": "purchase_return_id",
        "dbType": "integer",
        "htmlType": "number",
        "validations": "required",
        "searchable": true,
        "fillable": true,
        "primary": false,
        "inForm": true,
        "inIndex": true
    },
    {
        "name": "store",
        "dbType": "integer",
        "htmlType": "select,relation:store=name=id",
        "validations": "required",
        "searchable": true,
        "fillable": true,
        "primary": false,
        "inForm": true,
        "inIndex": true,
        "relation": "mt1,Store,store,id"
    },
    {
        "name": "item",
        "dbType": "integer",
        "htmlType": "select,relation:item=name=id",
        "validations": "required",
        "searchable": true,
        "fillable": true,
        "primary": false,
        "inForm": true,
        "inIndex": true,
        "relation": "mt1,Item,item,id"
    },
    {
        "name": "unique_barcode",
        "dbType": "string",
        "htmlType": "text",
        "validations": null,
        "searchable": true,
        "fillable": true,
        "primary": false,
        "inForm": true,
        "inIndex": true,
        "dbNullable" : true
    },
    {
        "name": "item_discount",
        "dbType": "double",
        "htmlType": "text",
        "validations": null,
        "searchable": true,
        "fillable": true,
        "primary": false,
        "inForm": true,
        "inIndex": true,
        "dbNullable" : true
    },
    {
        "name": "item_price",
        "dbType": "double",
        "htmlType": "text",
        "validations": null,
        "searchable": true,
        "fillable": true,
        "primary": false,
        "inForm": true,
        "inIndex": true,
        "dbNullable" : true
    },
    {
        "name": "item_amount",
        "dbType": "integer",
        "htmlType": "number",
        "validations": "required",
        "searchable": true,
        "fillable": true,
        "primary": false,
        "inForm": true,
        "inIndex": true
    },
    {
        "name": "discount_subtotal",
        "dbType": "double",
        "htmlType": "text",
        "validations": null,
        "searchable": true,
        "fillable": true,
        "primary": false,
        "inForm": true,
        "inIndex": true,
        "dbNullable" : true
    },
    {
        "name": "price_subtotal",
        "dbType": "double",
        "htmlType": "text",
        "validations": null,
        "searchable": true,
        "fillable": true,
        "primary": false,
        "inForm": true,
        "inIndex": true,
        "dbNullable" : true
    },
    {
        "name": "tax",
        "dbType": "double",
        "htmlType": "text",
        "validations": null,
        "searchable": true,
        "fillable": true,
        "primary": false,
        "inForm": true,
        "inIndex": true,
        "dbNullable" : true
    },
    {
        "name": "note",
        "dbType": "text",
        "htmlType": "textarea",
        "validations": null,
        "searchable": false,
        "fillable": true,
        "primary": false,
        "inForm": true,
        "inIndex": false,
        "dbNullable" : true
    },
    {
        "name": "created_by",
        "dbType": "integer",
        "htmlType": null,
        "validations": null,
        "searchable": true,
        "fillable": true,
        "primary": false,
        "inForm": false,
        "inIndex": true,
        "dbNullable" : true
    },
    {
        "name": "updated_by",
        "dbType": "integer",
        "htmlType": null,
        "validations": null,
        "searchable": true,
        "fillable": true,
        "primary": false,
        "inForm": false,
        "inIndex": true,
        "dbNullable" : true
    },
    {
        "name": "created_at",
        "dbType": "timestamp",
        "htmlType": null,
        "validations": null,
        "searchable": true,
        "fillable": false,
        "primary": false,
        "inForm": false,
        "inIndex": true,
        "dbNullable" : true
    },
    {
        "name": "updated_at",
        "dbType": "timestamp",
        "htmlType": null,
        "validations": null,
        "searchable": true,
        "fillable": false,
        "primary": false,
        "inForm": false,
        "inIndex": true,
        "dbNullable" : true
    }
]